5 Adele F – project title
…
scoobydoo |>
  filter(jeepers >= 1, jeepers != "NULL") |>
  select(index, jeepers) |>
  arrange(desc(jeepers))

# A tibble: 117 × 2
   index jeepers
   <dbl> <chr>  
 1   390 9      
 2    81 7      
 3    87 7      
 4   121 7      
 5   130 7      
 6   115 6      
 7   127 6      
 8    61 5      
 9    58 4      
10   109 4      
# ℹ 107 more rows
…
