6 MariaB – project title
…
#4 times in one episdoe

#What type of monsters are there and how often do they come up in the data?

scoobydoo |> 
  count(monster_type)

# A tibble: 133 × 2
   monster_type                                                                n
   <chr>                                                                   <int>
 1 Ancient                                                                    18
 2 Ancient,Ancient                                                             1
 3 Ancient,Animal                                                              2
 4 Ancient,Ghost,Extraterrestrial,Animal,Disguised,Ghost,Possessed Object…     1
 5 Ancient,Possessed                                                           1
 6 Ancient,Possessed Object                                                    1
 7 Animal                                                                     71
 8 Animal,Ancient                                                              1
 9 Animal,Ancient,Ancient,Mechanical,Plant                                     1
10 Animal,Animal                                                               8
# ℹ 123 more rows
…
