8 SarahR – Gender in Scooby-Doo TV Episodes
…
# A tibble: 2 × 2
  monster_gender     n
  <chr>          <int>
1 Female            10
2 Male             149

scoobydoo_clean |>
  filter(monster_gender == "Male") |>
  count(monster_name) |>
  arrange(desc(n))

# A tibble: 425 × 2
   monster_name           n
   <chr>              <int>
 1 Dr. Phineus Phibes    26
 2 Agent 2               22
 3 Dr. Trebla            20
 4 Agent 1               19
 5 Agent 4               12
 6 Mark                  12
 7 Ricky                 12
 8 Agent 13              10
 9 Zombies               10
10 Agent 3                9
# ℹ 415 more rows
…
scoobydoo |>
  group_by(series_name) |>
  summarize(n = n()) |>
  arrange((desc(n)))

# A tibble: 29 × 2
   series_name                                    n
   <chr>                                      <int>
 1 Scooby-Doo and Scrappy-Doo (second series)    86
 2 Be Cool, Scooby-Doo!                          53
 3 Scooby-Doo Mystery Incorporated               52
 4 Laff-a-Lympics                                48
 5 Warner Home Video                             42
 6 What's New Scooby-Doo?                        42
 7 Scooby-Doo and Guess Who?                     41
 8 The Scooby-Doo Show                           40
 9 A Pup Named Scooby-Doo                        30
10 Shaggy & Scooby-Doo Get a Clue!               26
# ℹ 19 more rows
…
scoobydoo_clean |>
  filter(monster_real == "TRUE") |>
  count(monster_name) |>
  arrange(desc(n))

# A tibble: 97 × 2
   monster_name           n
   <chr>              <int>
 1 Dr. Phineus Phibes    26
 2 Agent 2               22
 3 Dr. Trebla            20
 4 Agent 1               19
 5 Agent 4               12
 6 Mark                  12
 7 Ricky                 12
 8 Agent 13              10
 9 Agent 11               9
10 Agent 3                9
# ℹ 87 more rows
…
